…
    ## # A tibble: 1 x 4
    ##   Acres_Burned Containment  PM10  PM25
    ##          <dbl>       <dbl> <dbl> <dbl>
    ## 1  4384645320.       1044. 1389. 3357.

``` r
## Practice renaming the column names
rename(summary_data1, acres_burned = Acres_Burned, containment = Containment, pm10 = PM10, pm25 = PM25)
```

    ## # A tibble: 38 x 4
    ##    acres_burned containment  pm10  pm25
    ##           <dbl>       <dbl> <dbl> <dbl>
    ##  1        50000           0    68   149
    ##  2        90000           5    93   194
    ##  3       143000          10    95   177
    ##  4       155000          15   109   172
    ##  5       230000          10   107   172
    ##  6       231700          20   141   169
    ##  7        23600          25   117   169
    ##  8       238500          30   100   164
    ##  9       249500          35    96   155
    ## 10       256000          35    82   148
    ## # ... with 28 more rows
…
